EESchema Schematic File Version 2
LIBS:power
LIBS:device
LIBS:transistors
LIBS:conn
LIBS:linear
LIBS:regul
LIBS:74xx
LIBS:cmos4000
LIBS:adc-dac
LIBS:memory
LIBS:xilinx
LIBS:microcontrollers
LIBS:dsp
LIBS:microchip
LIBS:analog_switches
LIBS:motorola
LIBS:texas
LIBS:intel
LIBS:audio
LIBS:interface
LIBS:digital-audio
LIBS:philips
LIBS:display
LIBS:cypress
LIBS:siliconi
LIBS:opto
LIBS:atmel
LIBS:contrib
LIBS:valves
LIBS:my-microcontrollers
LIBS:my-misc-modules
LIBS:ir-remote-cache
EELAYER 25 0
EELAYER END
$Descr A4 11693 8268
encoding utf-8
Sheet 1 1
Title ""
Date ""
Rev ""
Comp ""
Comment1 ""
Comment2 ""
Comment3 ""
Comment4 ""
$EndDescr
$Comp
L arduino_nano U1
U 1 1 5D19D112
P 5100 3250
F 0 "U1" H 5400 2200 70  0000 C CNN
F 1 "arduino_nano" H 5400 2450 70  0000 C CNN
F 2 "myMicroControllers:Arduino-nano" H 5400 3200 60  0001 C CNN
F 3 "" H 5100 3250 60  0000 C CNN
	1    5100 3250
	1    0    0    -1  
$EndComp
$Comp
L TSOP4838 U2
U 1 1 5D19D192
P 7400 2300
F 0 "U2" H 7400 2100 60  0000 C CNN
F 1 "TSOP4838" H 7450 2500 60  0000 C CNN
F 2 "myModules:TSOP4838" H 7200 2450 60  0001 C CNN
F 3 "" H 7200 2450 60  0000 C CNN
	1    7400 2300
	1    0    0    -1  
$EndComp
$Comp
L GND #PWR01
U 1 1 5D19D1FC
P 7000 2550
F 0 "#PWR01" H 7000 2300 50  0001 C CNN
F 1 "GND" H 7000 2400 50  0000 C CNN
F 2 "" H 7000 2550 50  0000 C CNN
F 3 "" H 7000 2550 50  0000 C CNN
	1    7000 2550
	1    0    0    -1  
$EndComp
$Comp
L +5V #PWR02
U 1 1 5D19D265
P 6900 2050
F 0 "#PWR02" H 6900 1900 50  0001 C CNN
F 1 "+5V" H 6900 2190 50  0000 C CNN
F 2 "" H 6900 2050 50  0000 C CNN
F 3 "" H 6900 2050 50  0000 C CNN
	1    6900 2050
	1    0    0    -1  
$EndComp
$Comp
L GND #PWR03
U 1 1 5D19D29E
P 3600 4450
F 0 "#PWR03" H 3600 4200 50  0001 C CNN
F 1 "GND" H 3600 4300 50  0000 C CNN
F 2 "" H 3600 4450 50  0000 C CNN
F 3 "" H 3600 4450 50  0000 C CNN
	1    3600 4450
	1    0    0    -1  
$EndComp
$Comp
L CONN_01X03 P1
U 1 1 5F93FE40
P 7400 3100
F 0 "P1" H 7400 3300 50  0000 C CNN
F 1 "RELAY" V 7500 3100 50  0000 C CNN
F 2 "Pin_Headers:Pin_Header_Straight_1x03" H 7400 3100 50  0001 C CNN
F 3 "" H 7400 3100 50  0000 C CNN
	1    7400 3100
	1    0    0    -1  
$EndComp
$Comp
L GND #PWR04
U 1 1 5F93FF31
P 7100 5100
F 0 "#PWR04" H 7100 4850 50  0001 C CNN
F 1 "GND" H 7100 4950 50  0000 C CNN
F 2 "" H 7100 5100 50  0000 C CNN
F 3 "" H 7100 5100 50  0000 C CNN
	1    7100 5100
	1    0    0    -1  
$EndComp
$Comp
L GND #PWR05
U 1 1 5F93FF62
P 7100 3300
F 0 "#PWR05" H 7100 3050 50  0001 C CNN
F 1 "GND" H 7100 3150 50  0000 C CNN
F 2 "" H 7100 3300 50  0000 C CNN
F 3 "" H 7100 3300 50  0000 C CNN
	1    7100 3300
	1    0    0    -1  
$EndComp
Wire Wire Line
	7000 2300 7000 2550
Wire Wire Line
	7100 2300 7000 2300
Wire Wire Line
	6900 2050 6900 2400
Wire Wire Line
	6900 2400 7100 2400
Wire Wire Line
	3800 3950 3800 5250
Wire Wire Line
	3800 4050 4400 4050
Wire Wire Line
	3600 4450 3600 4350
Wire Wire Line
	3600 4350 4400 4350
Wire Wire Line
	4200 4900 7200 4900
Connection ~ 3800 4050
Wire Wire Line
	7100 5100 7100 5000
Wire Wire Line
	7100 5000 7200 5000
Wire Wire Line
	7100 3300 7100 3200
Wire Wire Line
	7100 3200 7200 3200
Wire Wire Line
	6450 3750 6600 3750
Wire Wire Line
	6600 3750 6600 2200
Wire Wire Line
	6600 2200 7100 2200
Wire Wire Line
	7200 3000 6700 3000
Wire Wire Line
	6700 3000 6700 3600
Wire Wire Line
	6700 3600 6450 3600
$Comp
L JUMPER3 JP1
U 1 1 5F940098
P 4100 4900
F 0 "JP1" H 4150 4800 50  0000 L CNN
F 1 "12V-5V" H 4100 5000 50  0000 C BNN
F 2 "Pin_Headers:Pin_Header_Straight_1x03" H 4100 4900 50  0001 C CNN
F 3 "" H 4100 4900 50  0000 C CNN
	1    4100 4900
	0    -1   -1   0   
$EndComp
Wire Wire Line
	6950 3100 7200 3100
$Comp
L CONN_01X02 P2
U 1 1 5F94027D
P 7400 4950
F 0 "P2" H 7400 5100 50  0000 C CNN
F 1 "POWER" V 7500 4950 50  0000 C CNN
F 2 "Pin_Headers:Pin_Header_Straight_1x02" H 7400 4950 50  0001 C CNN
F 3 "" H 7400 4950 50  0000 C CNN
	1    7400 4950
	1    0    0    -1  
$EndComp
$Comp
L +5V #PWR06
U 1 1 5D19D284
P 3800 3950
F 0 "#PWR06" H 3800 3800 50  0001 C CNN
F 1 "+5V" H 3800 4090 50  0000 C CNN
F 2 "" H 3800 3950 50  0000 C CNN
F 3 "" H 3800 3950 50  0000 C CNN
	1    3800 3950
	1    0    0    -1  
$EndComp
$Comp
L +12V #PWR07
U 1 1 5F9401FD
P 4100 3950
F 0 "#PWR07" H 4100 3800 50  0001 C CNN
F 1 "+12V" H 4100 4090 50  0000 C CNN
F 2 "" H 4100 3950 50  0000 C CNN
F 3 "" H 4100 3950 50  0000 C CNN
	1    4100 3950
	1    0    0    -1  
$EndComp
Wire Wire Line
	3800 5250 4100 5250
Wire Wire Line
	4100 5250 4100 5150
Wire Wire Line
	4400 4500 4100 4500
Wire Wire Line
	4100 3950 4100 4650
Wire Wire Line
	6950 3100 6950 4900
Connection ~ 6950 4900
Connection ~ 4100 4500
$EndSCHEMATC
